\relax 
\providecommand\hyper@newdestlabel[2]{}
\catcode \string ``=12
\providecommand\HyperFirstAtBeginDocument{\AtBeginDocument}
\HyperFirstAtBeginDocument{\ifx\hyper@anchor\@undefined
\global\let\oldcontentsline\contentsline
\gdef\contentsline#1#2#3#4{\oldcontentsline{#1}{#2}{#3}}
\global\let\oldnewlabel\newlabel
\gdef\newlabel#1#2{\newlabelxx{#1}#2}
\gdef\newlabelxx#1#2#3#4#5#6{\oldnewlabel{#1}{{#2}{#3}}}
\AtEndDocument{\ifx\hyper@anchor\@undefined
\let\contentsline\oldcontentsline
\let\newlabel\oldnewlabel
\fi}
\fi}
\global\let\hyper@last\relax 
\gdef\HyperFirstAtBeginDocument#1{#1}
\providecommand\HyField@AuxAddToFields[1]{}
\providecommand\HyField@AuxAddToCoFields[2]{}
\@writefile{toc}{\select@language{magyar} \contentsline {section}{\numberline {1}H\'att\'er}{2}{section.1}}
\@writefile{toc}{\select@language{magyar} \contentsline {section}{\numberline {2}G\'epi tanul\'as}{3}{section.2}}
\@writefile{toc}{\select@language{magyar} \contentsline {section}{\numberline {3}Akt\IeC {\'\i }v tanul\'as}{4}{section.3}}
\@writefile{toc}{\select@language{magyar} \contentsline {section}{\numberline {4}Eredm\'enyek}{6}{section.4}}
