\select@language {magyar} \contentsline {section}{Feladatki\IeC {\'\i }r\'as}{2}{chapter*.1}
\select@language {magyar} \contentsline {section}{Tartalmi \"osszefoglal\'o}{3}{chapter*.2}
\select@language {magyar} \contentsline {section}{Bevezet\'es}{5}{chapter*.4}
\select@language {magyar} \ 
\select@language {magyar} \contentsline {section}{Nyilatkozat}{6}{chapter*.5}
\select@language {magyar} \contentsline {section}{K\"osz\"onetnyilv\'an\IeC {\'\i }t\'as}{7}{chapter*.6}
