This is BibTeX, Version 0.99dThe top-level auxiliary file: szkabelThesis.aux
The style file: infSzegedThesis.bst
Database file #1: activeRegression.bib
Warning--entry type for "settlesAL" isn't style-file defined
--line 94 of file activeRegression.bib
Warning--entry type for "crossVal" isn't style-file defined
--line 103 of file activeRegression.bib
Warning--entry type for "nnVariance" isn't style-file defined
--line 116 of file activeRegression.bib
Warning--entry type for "settlesAnnotationCosts" isn't style-file defined
--line 136 of file activeRegression.bib
Repeated entry---line 180 of file activeRegression.bib
 : @article{carpenter2006cellprofiler
 :                                   ,
I'm skipping whatever remains of this entry
A bad cross reference---entry "molnarDICTA"
refers to entry "DBLP:conf/dicta/2015", which doesn't exist
Warning--I didn't find a database entry for "DBLP:conf/dicta/2015"
(There were 2 error messages)
